{
	"_id": "6458a1fae31ac858b9d86e0a",
	"totalExecutions": 23,
	"totalTest": 15500,
	"averageExecTime": 0,
	"numFailedTests": 2450,
	"numPassedTests": 12500,
	"numOtherTests": 550,
	"groups": [
		{
			"name": "QA Dashboard",
			"numTotalTests": 5500,
			"numFailedTests": 450,
			"numPassedTests": 5000,
			"numOtherTests": 50,
			"tests": [
				{
					"token": "23545465678568fgh34",
					"name": "UT staging 01",
					"numTotalTests": 200,
					"numFailedTests": 40,
					"numPassedTests": 150,
					"numOtherTests": 10,
					"timestamp": "2023-06-27T09:14:24",
					"executions": [
						{
							"timestamp": "2022-03-01 - 17:45",
							"execTime": "2'34''",
							"numTotalTests": 200,
							"numFailedTests": 40,
							"numPassedTests": 150,
							"numOtherTests": 10,
							"testSuites": [
								{
									"name": "Cart",
									"execTime": "2'34''",
									"numFailedTests": 40,
									"numPassedTests": 36,
									"numOtherTests": 12,
									"testCases": [
										{
											"name": "test 1",
											"execTime": "14''",
											"status": "Successful"
										},
										{
											"name": "test 2",
											"execTime": "4''",
											"status": "Fail"
										}
									]
								}
							]
						}
					]
				},
				{
					"token": "43554667df34dfg442",
					"name": "UI WebdriverIO",
					"numTotalTests": 6000,
					"numFailedTests": 1000,
					"numPassedTests": 4800,
					"numOtherTests": 200,
					"hour": "06:45",
					"date": "11/08",
					"executions": [
						{
							"timestamp": "2022-03-01 - 17:45",
							"execTime": "2'34''",
							"numTotalTests": 6000,
							"numFailedTests": 1000,
							"numPassedTests": 4800,
							"numOtherTests": 200,
							"testSuites": [
								{
									"name": "Cart",
									"execTime": "2'34''",
									"numFailedTests": 1000,
									"numPassedTests": 4800,
									"numOtherTests": 200,
									"testCases": [
										{
											"name": "test 1",
											"execTime": "14''",
											"status": "Successful"
										},
										{
											"name": "test 2",
											"execTime": "4''",
											"status": "Fail"
										}
									]
								}
							]
						}
					]
				},
				{
					"token": "hij789test",
					"name": "UI Playwright",
					"numTotalTests": 2890,
					"numFailedTests": 300,
					"numPassedTests": 2500,
					"numOtherTests": 90,
					"hour": "17:40",
					"date": "18/03",
					"executions": [
						{
							"timestamp": "2022-03-01 - 17:45",
							"execTime": "2'34''",
							"numTotalTests": 2890,
							"numFailedTests": 300,
							"numPassedTests": 2500,
							"numOtherTests": 90,
							"testSuites": [
								{
									"name": "Cart",
									"execTime": "2'34''",
									"numTotalTests": 2890,
									"numFailedTests": 300,
									"numPassedTests": 2500,
									"numOtherTests": 90,
									"testCases": [
										{
											"name": "test 1",
											"execTime": "14''",
											"status": "Successful"
										},
										{
											"name": "test 2",
											"execTime": "4''",
											"status": "Fail"
										}
									]
								}
							]
						}
					]
				}
			]
		},
		{
			"name": "API 2.0",
			"numTotalTests": 6500,
			"numFailedTests": 550,
			"numPassedTests": 5900,
			"numOtherTests": 50,
			"tests": [
				{
					"token": "35456dfg546",
					"name": "UT staging",
					"numTotalTests": 500,
					"numFailedTests": 70,
					"numPassedTests": 400,
					"numOtherTests": 30,
					"hour": "22:22",
					"date": "07/01",
					"executions": [
						{
							"timestamp": "2022-03-01 - 17:45",
							"execTime": "2'34''",
							"numTotalTests": 500,
							"numFailedTests": 70,
							"numPassedTests": 400,
							"numOtherTests": 30,
							"testSuites": [
								{
									"name": "Cart",
									"execTime": "2'34''",
									"numFailedTests": 70,
									"numPassedTests": 400,
									"numOtherTests": 30,
									"testCases": [
										{
											"name": "test 1",
											"execTime": "14''",
											"status": "Successful"
										},
										{
											"name": "test 2",
											"execTime": "4''",
											"status": "Fail"
										}
									]
								}
							]
						}
					]
				},
				{
					"token": "345346546fgh54",
					"name": "UI WebdriverIO",
					"numTotalTests": 4000,
					"numFailedTests": 600,
					"numPassedTests": 3200,
					"numOtherTests": 200,
					"hour": "12:34",
					"date": "05/07",
					"executions": [
						{
							"timestamp": "2022-03-01 - 17:45",
							"execTime": "2'34''",
							"numTotalTests": 1000,
							"numFailedTests": 200,
							"numPassedTests": 780,
							"numOtherTests": 20,
							"testSuites": [
								{
									"name": "Cart",
									"execTime": "2'34''",
									"numFailedTests": 24,
									"numPassedTests": 36,
									"numOtherTests": 12,
									"testCases": [
										{
											"name": "test 1",
											"execTime": "14''",
											"status": "Successful"
										},
										{
											"name": "test 2",
											"execTime": "4''",
											"status": "Fail"
										}
									]
								}
							]
						},
						{
							"timestamp": "2022-03-01 - 17:45",
							"execTime": "2'34''",
							"numTotalTests": 3000,
							"numFailedTests": 700,
							"numPassedTests": 2000,
							"numOtherTests": 300,
							"testSuites": [
								{
									"name": "Cart",
									"execTime": "2'34''",
									"numFailedTests": 24,
									"numPassedTests": 36,
									"numOtherTests": 12,
									"testCases": [
										{
											"name": "test 1",
											"execTime": "14''",
											"status": "Successful"
										},
										{
											"name": "test 2",
											"execTime": "4''",
											"status": "Fail"
										}
									]
								}
							]
						}
					]
				},
				{
					"token": "hij789test",
					"name": "UI Playwright",
					"numTotalTests": 2000,
					"numFailedTests": 1,
					"numPassedTests": 1998,
					"numOtherTests": 1,
					"hour": "12:00",
					"date": "12/12",
					"executions": [
						{
							"timestamp": "2022-03-01 - 17:45",
							"execTime": "2'34''",
							"numTotalTests": 2000,
							"numFailedTests": 1,
							"numPassedTests": 1998,
							"numOtherTests": 1,
							"testSuites": [
								{
									"name": "Cart",
									"execTime": "2'34''",
									"numFailedTests": 1,
									"numPassedTests": 1998,
									"numOtherTests": 1,
									"testCases": [
										{
											"name": "test 1",
											"execTime": "14''",
											"status": "Successful"
										},
										{
											"name": "test 2",
											"execTime": "4''",
											"status": "Fail"
										}
									]
								}
							]
						}
					]
				}
			]
		},
		{
			"name": "Redsauce Blog",
			"numTotalTests": 10000,
			"numFailedTests": 2000,
			"numPassedTests": 7500,
			"numOtherTests": 500,
			"tests": [
				{
					"token": "35456dfg546",
					"name": "UT staging",
					"numTotalTests": 5000,
					"numFailedTests": 2000,
					"numPassedTests": 3000,
					"numOtherTests": 0,
					"hour": "08:00",
					"date": "04/11",
					"executions": [
						{
							"timestamp": "2022-03-01 - 17:45",
							"execTime": "2'34''",
							"numTotalTests": 5000,
							"numFailedTests": 2000,
							"numPassedTests": 3000,
							"numOtherTests": 0,
							"testSuites": [
								{
									"name": "Cart",
									"execTime": "2'34''",
									"numFailedTests": 2000,
									"numPassedTests": 3000,
									"numOtherTests": 0,
									"testCases": [
										{
											"name": "test 1",
											"execTime": "14''",
											"status": "Successful"
										},
										{
											"name": "test 2",
											"execTime": "4''",
											"status": "Fail"
										}
									]
								}
							]
						}
					]
				},
				{
					"token": "345346546fgh54",
					"name": "UI WebdriverIO",
					"numTotalTests": 3500,
					"numFailedTests": 98,
					"numPassedTests": 3400,
					"numOtherTests": 2,
					"hour": "10:00",
					"date": "09/12",
					"executions": [
						{
							"timestamp": "2022-03-01 - 17:45",
							"execTime": "2'34''",
							"numTotalTests": 2900,
							"numFailedTests": 250,
							"numPassedTests": 2600,
							"numOtherTests": 50,
							"testSuites": [
								{
									"name": "Cart",
									"execTime": "2'34''",
									"numFailedTests": 250,
									"numPassedTests": 2600,
									"numOtherTests": 50,
									"testCases": [
										{
											"name": "test 1",
											"execTime": "14''",
											"status": "Successful"
										},
										{
											"name": "test 2",
											"execTime": "4''",
											"status": "Fail"
										}
									]
								}
							]
						},
						{
							"timestamp": "2022-03-01 - 17:45",
							"execTime": "2'34''",
							"numTotalTests": 900,
							"numFailedTests": 60,
							"numPassedTests": 800,
							"numOtherTests": 40,
							"testSuites": [
								{
									"name": "Cart",
									"execTime": "2'34''",
									"numFailedTests": 60,
									"numPassedTests": 800,
									"numOtherTests": 40,
									"testCases": [
										{
											"name": "test 1",
											"execTime": "14''",
											"status": "Successful"
										},
										{
											"name": "test 2",
											"execTime": "4''",
											"status": "Fail"
										}
									]
								}
							]
						}
					]
				},
				{
					"token": "hij789test",
					"name": "UI Playwright",
					"numTotalTests": 1500,
					"numFailedTests": 650,
					"numPassedTests": 800,
					"numOtherTests": 50,
					"hour": "12:00",
					"date": "12/12",
					"executions": [
						{
							"timestamp": "2022-03-01 - 17:45",
							"execTime": "2'34''",
							"numTotalTests": 500,
							"numFailedTests": 300,
							"numPassedTests": 200,
							"numOtherTests": 0,
							"testSuites": [
								{
									"name": "Cart",
									"execTime": "2'34''",
									"numFailedTests": 300,
									"numPassedTests": 200,
									"numOtherTests": 0,
									"testCases": [
										{
											"name": "test 1",
											"execTime": "14''",
											"status": "Successful"
										},
										{
											"name": "test 2",
											"execTime": "4''",
											"status": "Fail"
										}
									]
								}
							]
						},
						{
							"timestamp": "2022-03-01 - 17:45",
							"execTime": "2'34''",
							"numTotalTests": 1000,
							"numFailedTests": 200,
							"numPassedTests": 750,
							"numOtherTests": 50,
							"testSuites": [
								{
									"name": "Cart",
									"execTime": "2'34''",
									"numFailedTests": 200,
									"numPassedTests": 750,
									"numOtherTests": 50,
									"testCases": [
										{
											"name": "test 1",
											"execTime": "14''",
											"status": "Successful"
										},
										{
											"name": "test 2",
											"execTime": "4''",
											"status": "Fail"
										}
									]
								}
							]
						}
					]
				}
			]
		}
	]
}